XXXXXXXXXXXXXXXXXXXXXXXXXXX
X............X............X
X.XXX.XXXXXX.X.XXXXXX.XXX.X
X.X X.X X.........X X.X X.X
X.XXX.XXX.XXXXXXX.XXX.XXX.X
X............X............X
X.XXX.XXXXXX X XXXXXX.XXX.X
X.......X         X.......X
X.XXXXX.X XXX XXX X.XXXXX.X
X.XXXXX.X X     X X.XXXXX.X
X........ X     X ........X
X.XXXXX.X X     X X.XXXXX.X
X.XXXXX.X XXXXXXX X.XXXXX.X
X............X............X
X.XXX.XXXXXX.X.XXXXXX.XXX.X
X...X.................X...X
XXX.XXX.X.XXXXXXX.X.XXX.XXX
X.......X....X....X.......X
X.XXXXXXXXXX.X.XXXXXXXXXX.X
X.........................X
XXXXXXXXXXXXXXXXXXXXXXXXXXX